[
  {
    "id": 1,
    "title": "Swensen's",
    "time": "Opens at 10:00AM",
    "body": "Swensen's Inc. is a Canadian-owned global chain of ice cream restaurants.",
    "image": "http://www.swensensicecream.com/sites/default/files/outrageous-sundaes_1.jpg",
    "price" : "400Rs for 2"
  },
  {
    "id": 2,
    "time": "Opens at 08:00AM",
    "title": "Polar Bear Ice Cream",
    "body": "At Polar Bear, we don’t believe in compromise. We believe in living life to the fullest and offer outrageously good treats that taste amazing and are good for everyone. Equally important to our commitment to innovation is our promise of quality. Only best ingredients sourced globally are used in making our perfect Sundaes.",
    "image": "http://polarbear.co.in/wp-content/uploads/2019/12/logo-yellow-bg-v2.png",
    "price" : "750Rs for 2"
  },
  {
    "id": 3,
    "time": "Opens at 06:49PM",
    "title": "Zee 5 Loft",
    "body": "Zee5 Loft recently launched its second property in Koramangala",
    "image": "https://pbs.twimg.com/profile_images/1096485006636130304/ICdFW9gQ.png",
    "price" : "380Rs for 2"
  },
  {
    "id": 4,
    "time": "Opens at 06:30 PM",
    "title": "Ecohes",
    "body": "Echoes Koramangala is a casual dining restaurant located in Koramangala, South Bangalore. The ambien... ",
    "image": "https://im1.dineout.co.in/images/uploads/restaurant/sharpen/3/e/c/p31070-15565208655cc69fa1cf95f.jpg?tr=tr:n-large",
    "price" : "600Rs for 2"
  },
  {
    "id": 5,
    "time": "Opens at 08:00AM",
    "title": "Chianti, MG Road",
    "body": "One of the best Italian places I have been to in Bangalore. Food is amazing. Staff is friendly. Oh the Panacotta desert was so yum. The appetizers the mains everything was delicious. Would definitely recommend and go again",
    "image": "https://d2jz4nqvi4omcr.cloudfront.net/Blogs/best-restaurants-mg-road-cover.jpg",
    "price" : "900Rs for 2"
  },
  {
    "id": 6,
    "time": "Opens at 06:19PM",
    "title": "Rim Naam",
    "body": "Nestled deep within the gardens, our speciality Thai restaurant offers alfresco dining on a secluded wooden pavilion that seems afloat on the water body that surrounds it. The menu features authentic Thai cuisine and fresh seafood.",
    "image": "https://www.oberoihotels.com/-/media/oberoi-hotels/website-images/the-oberoi-bengaluru/dining/detail/rim-naam.jpg?w=724&hash=cdb0200a70ad8683fce07eda4502e663",
    "price" : "380Rs for 2"
  },
  {
    "id": 7,
    "time": "Opens at 06:30 PM",
    "title": "Hard Rock Cafe",
    "body": "Taste takes center stage at Hard Rock Cafe Bengaluru featuring a variety of dining options, including three distinct seating areas.",
    "image": "https://www.hardrockcafe.com/files/5282/Cafe-Lifestyle-Day-2-1298-Edit.jpg",
    "price" : "600Rs for 2"
  }
]